<svg width="580" height="19" viewBox="0 0 580 19" fill="none" xmlns="http://www.w3.org/2000/svg">
<rect y="0.5" width="116" height="18" fill="#FA7777"/>
<rect x="116" y="0.5" width="116" height="18" fill="#FE9C9C"/>
<rect opacity="0.8" x="232" y="0.5" width="116" height="18" fill="#E78A8A"/>
<rect opacity="0.8" x="348" y="0.5" width="116" height="18" fill="#ED6565"/>
<rect width="116" height="18" transform="translate(464 0.5)" fill="#3EC785"/>
<path d="M507.645 13.6934C509.713 13.6934 510.896 12.0293 510.896 9.12305C510.896 6.24609 509.537 4.8457 507.715 4.8457C505.98 4.8457 504.75 6.05859 504.75 7.75781C504.75 9.39844 505.916 10.5879 507.527 10.5879C508.535 10.5879 509.361 10.1074 509.777 9.28711H509.871C509.812 11.5371 509.033 12.7559 507.656 12.7559C506.824 12.7559 506.18 12.293 505.957 11.5312H504.873C505.137 12.8613 506.209 13.6934 507.645 13.6934ZM507.715 9.67383C506.596 9.67383 505.816 8.87695 505.816 7.72266C505.816 6.61523 506.643 5.77148 507.727 5.77148C508.811 5.77148 509.637 6.62695 509.637 7.75781C509.637 8.87695 508.834 9.67383 507.715 9.67383ZM512.543 7.42969H513.562C513.562 6.42773 514.236 5.76562 515.25 5.76562C516.246 5.76562 516.85 6.43359 516.85 7.33008C516.85 8.07422 516.533 8.51367 515.455 9.67969L512.596 12.7734V13.5H518.068V12.5508H514.061V12.457L515.982 10.4707C517.506 8.89453 517.928 8.19141 517.928 7.21875C517.928 5.84766 516.797 4.8457 515.32 4.8457C513.703 4.8457 512.543 5.92383 512.543 7.42969ZM520.512 13.5586C520.934 13.5586 521.273 13.2129 521.273 12.7969C521.273 12.375 520.934 12.0352 520.512 12.0352C520.096 12.0352 519.75 12.375 519.75 12.7969C519.75 13.2129 520.096 13.5586 520.512 13.5586ZM525.662 13.6992C527.391 13.6992 528.568 12.5039 528.568 10.7637C528.568 9.08789 527.396 7.97461 525.979 7.97461C525.135 7.97461 524.508 8.23242 524.098 8.74219H524.004L524.268 5.98828H528.135V5.04492H523.441L522.955 9.87891H523.945C524.279 9.25195 524.912 8.88281 525.715 8.88281C526.781 8.88281 527.514 9.65039 527.514 10.793C527.514 11.9766 526.781 12.7734 525.674 12.7734C524.678 12.7734 523.951 12.1699 523.857 11.2676H522.82C522.914 12.7148 524.062 13.6992 525.662 13.6992ZM531.551 8.87109C532.693 8.87109 533.385 8.12695 533.385 6.87891C533.385 5.64844 532.688 4.89258 531.551 4.89258C530.414 4.89258 529.711 5.64844 529.711 6.87891C529.711 8.12109 530.402 8.87109 531.551 8.87109ZM531.932 13.5L537.773 5.04492H536.818L530.977 13.5H531.932ZM531.551 8.10352C530.959 8.10352 530.619 7.6582 530.619 6.88477C530.619 6.11719 530.959 5.66602 531.551 5.66602C532.137 5.66602 532.477 6.11719 532.477 6.88477C532.477 7.65234 532.143 8.10352 531.551 8.10352ZM537.205 13.582C538.348 13.582 539.039 12.8379 539.039 11.5898C539.039 10.3594 538.342 9.60352 537.205 9.60352C536.068 9.60352 535.365 10.3594 535.365 11.5898C535.365 12.832 536.062 13.582 537.205 13.582ZM537.205 12.8145C536.613 12.8145 536.279 12.3691 536.279 11.5957C536.279 10.8281 536.613 10.377 537.205 10.377C537.797 10.377 538.131 10.8281 538.131 11.5957C538.131 12.3633 537.797 12.8145 537.205 12.8145Z" fill="white"/>
</svg>
