<svg width="72" height="36" viewBox="0 0 72 36" fill="none" xmlns="http://www.w3.org/2000/svg">
<rect width="72" height="36" rx="4" fill="white"/>
<rect x="2" y="2" width="32" height="32" rx="4" fill="white" fill-opacity="0.1"/>
<g clip-path="url(#clip0_0_39)">
<path d="M15 12H26" stroke="#5D5D5D" stroke-width="1.5" stroke-linecap="round" stroke-linejoin="round"/>
<path d="M15 18H26" stroke="#5D5D5D" stroke-width="1.5" stroke-linecap="round" stroke-linejoin="round"/>
<path d="M15 24H26" stroke="#5D5D5D" stroke-width="1.5" stroke-linecap="round" stroke-linejoin="round"/>
<path d="M11 12V12.01" stroke="#5D5D5D" stroke-width="1.5" stroke-linecap="round" stroke-linejoin="round"/>
<path d="M11 18V18.01" stroke="#5D5D5D" stroke-width="1.5" stroke-linecap="round" stroke-linejoin="round"/>
<path d="M11 24V24.01" stroke="#5D5D5D" stroke-width="1.5" stroke-linecap="round" stroke-linejoin="round"/>
</g>
<rect x="38" y="2" width="32" height="32" rx="4" fill="#2C78F6" fill-opacity="0.1"/>
<g clip-path="url(#clip1_0_39)">
<path d="M46 25L50 19L54 21L58 16L62 20V25H46Z" stroke="#141414" stroke-width="1.5" stroke-linecap="round" stroke-linejoin="round"/>
<path d="M46 18L49 14L53 16L58 10L62 14" stroke="#141414" stroke-width="1.5" stroke-linecap="round" stroke-linejoin="round"/>
</g>
<defs>
<clipPath id="clip0_0_39">
<rect x="6" y="6" width="24" height="24" rx="4" fill="white"/>
</clipPath>
<clipPath id="clip1_0_39">
<rect width="24" height="24" fill="white" transform="translate(42 6)"/>
</clipPath>
</defs>
</svg>
